data;keyproperty;created_by
8;Password Minlength;system
smtp.gmail.com;Email Host;system
587;Email Port;system
username;Email UserName;system
password;Email Password;system
180;Clear Period;system
C:\reports;Report Download Folder;system
file:///C:/Sravan/Purna/polsoft/src/main/webapp/content/images/Natco.png;Company Logo Path;system
C:\polsoft\influxdb\backups;Back up folder location;system