{
    "fluentMethods": true,
    "relationships": [
        {
            "relationshipName": "alarmtemplate",
            "otherEntityName": "alarmtemplate",
            "relationshipType": "many-to-many",
            "ownerSide": false,
            "otherEntityRelationshipName": "alarmtemplateschedulars"
        }
    ],
    "fields": [
        {
            "fieldName": "day",
            "fieldType": "String"
        },
        {
            "fieldName": "starttime",
            "fieldType": "BigDecimal"
        },
        {
            "fieldName": "endtime",
            "fieldType": "BigDecimal"
        }
    ],
    "changelogDate": "20170527155050",
    "dto": "mapstruct",
    "service": "serviceImpl",
    "entityTableName": "alarmtemplateschedulars",
    "pagination": "no"
}
