{
    "fluentMethods": true,
    "relationships": [
        {
            "relationshipName": "parent",
            "otherEntityName": "location",
            "relationshipType": "many-to-one",
            "otherEntityField": "id"
        },
        {
            "relationshipName": "dchannel",
            "otherEntityName": "dchannel",
            "relationshipType": "one-to-one",
            "otherEntityField": "id",
            "ownerSide": true,
            "otherEntityRelationshipName": "location"
        }
    ],
    "fields": [
        {
            "fieldName": "name",
            "fieldType": "String"
        },
        {
            "fieldName": "leaf",
            "fieldType": "Boolean"
        }
    ],
    "changelogDate": "20170318193301",
    "dto": "mapstruct",
    "service": "serviceClass",
    "entityTableName": "location",
    "pagination": "no"
}
