{
    "fluentMethods": true,
    "relationships": [
        {
            "relationshipName": "blocks",
            "otherEntityName": "block",
            "relationshipType": "one-to-many",
            "otherEntityRelationshipName": "plant"
        }
    ],
    "fields": [
        {
            "fieldName": "name",
            "fieldType": "String",
            "fieldValidateRules": [
                "required"
            ]
        }
    ],
    "changelogDate": "20161203035903",
    "dto": "mapstruct",
    "service": "serviceClass",
    "entityTableName": "plant",
    "pagination": "no"
}
